Liste Rouge Régionale des poissons d’eau douce de Bretagne
…
On souhaite calculer le taux d’évolution inter-annuel, c’est à dire entre l’année n et l’année n-1, par espèce. Si le taux d’évolution est positif, cela correspond à une croissance de la population ; si il est négatif, cela correspond à un déclin.

# Taux d'évolution du taux d'occurence de densité de surface : 

taux_evol_1990 <- calcul_taux_evol(df = reg_indicateur,
                             var_x = annee,
                             var_y = valeur,
                             debut = 1990,
                             esp_code_alternatif,
                             stade,
                             indicateur)
print(taux_evol_1990)

## # A tibble: 427 × 5
## # Groups:   esp_code_alternatif, stade [71]
##    esp_code_alternatif stade indicateur        mean_geom debut
##    <chr>               <chr> <chr>                 <dbl> <dbl>
##  1 ABL                 ad    biomasse              0.956  1990
##  2 ABL                 ad    densite_surface       0.985  1990
##  3 ABL                 ad    densite_volumique     0.942  1990
##  4 ABL                 ad    effectif_total        0.985  1990
##  5 ABL                 ad    longueur_mediane      0.993  1990
##  6 ABL                 ind   biomasse              0.964  1990
##  7 ABL                 ind   densite_surface       1.03   1990
##  8 ABL                 ind   densite_volumique     0.992  1990
##  9 ABL                 ind   effectif_total        1.04   1990
## 10 ABL                 ind   longueur_mediane      0.974  1990
## # ℹ 417 more rows
…
