Liste Rouge Régionale des poissons d’eau douce de Bretagne
…
reg_indicateur_lrr_pvalues_lm <- reg_indicateur_lrr_pvalues_lm %>% 
  filter(indicateur %in% c("densite_surface",
                           "pourcentage_juveniles",
                           "taux_occurrence"),
         stade == "ind")

# Visualisation des résultats
print(reg_indicateur_lrr_pvalues_lm)

## # A tibble: 39 × 9
## # Groups:   stade, indicateur, esp_code_alternatif [39]
##    periode   stade indicateur  esp_code_alternatif estimate p.value significance
##    <chr>     <chr> <chr>       <chr>                  <dbl>   <dbl> <chr>       
##  1 1990_2023 ind   densite_su… ANG                 -5.38e-4 1.24e-7 significant 
##  2 1990_2023 ind   pourcentag… ANG                  4.71e-1 2.46e-5 significant 
##  3 1990_2023 ind   taux_occur… ANG                 -4.55e-3 1.32e-6 significant 
##  4 2005_2023 ind   densite_su… CHE                 -1.05e-3 3.42e-1 non_signifi…
##  5 2005_2023 ind   densite_su… LPP                  2.22e-4 4.19e-1 non_signifi…
##  6 2005_2023 ind   pourcentag… CHE                  4.22e-1 2.14e-2 significant 
##  7 2005_2023 ind   pourcentag… LPP                 -4.87e-2 7.23e-1 non_signifi…
##  8 2005_2023 ind   taux_occur… CHE                 -5.95e-3 2.07e-2 significant 
##  9 2005_2023 ind   taux_occur… LPP                  5.86e-3 1.05e-3 significant 
## 10 2008_2023 ind   densite_su… BRO                 -6.99e-5 5.90e-1 non_signifi…
## # ℹ 29 more rows
## # ℹ 2 more variables: trend <chr>, sig <chr>
…
