Liste Rouge Régionale des poissons d’eau douce de Bretagne
…
# Filtrer les données pour l'indicateur 'effectif_total'
pnt_vue <- ope_indicateur %>%
  filter(indicateur == 'effectif_total', 
         stade == "ad") %>%
  group_by(esp_code_alternatif, annee) %>%
  summarize(effectif_total_cumule = sum(valeur)) %>%
  pivot_wider(names_from = annee, values_from = effectif_total_cumule, values_fill = 0)

## `summarise()` has grouped output by 'esp_code_alternatif'. You can override
## using the `.groups` argument.

print(pnt_vue)

## # A tibble: 24 × 35
## # Groups:   esp_code_alternatif [24]
##    esp_code_alternatif `1990` `1991` `1992` `1993` `1994` `1995` `1996` `1997`
##    <chr>                <dbl>  <dbl>  <dbl>  <dbl>  <dbl>  <dbl>  <dbl>  <dbl>
##  1 ABL                   1422    776    405    143    144    338    133    300
##  2 ANG                   1068    896    394    524    596    237    127    149
##  3 BRB                      0     17      1      1      0      0     10      8
##  4 BRE                      2      1      0      9      9     18     12      4
##  5 BRO                      4      1      2      1      2      0      2      0
##  6 CCO                      0      0      0      1      0      0      0      0
##  7 CHA                    682    803   1222   1449   1113   1591   1373   1698
##  8 CHE                     22     82     70     79     76     35     55     32
##  9 EPI                      2      2     20     38      1      2      0     41
## 10 EPT                      2      2      0     17      7      0      0      4
## # ℹ 14 more rows
## # ℹ 26 more variables: `1998` <dbl>, `1999` <dbl>, `2000` <dbl>, `2001` <dbl>,
## #   `2002` <dbl>, `2003` <dbl>, `2004` <dbl>, `2005` <dbl>, `2006` <dbl>,
## #   `2007` <dbl>, `2008` <dbl>, `2009` <dbl>, `2010` <dbl>, `2011` <dbl>,
## #   `2012` <dbl>, `2013` <dbl>, `2014` <dbl>, `2015` <dbl>, `2016` <dbl>,
## #   `2017` <dbl>, `2018` <dbl>, `2019` <dbl>, `2020` <dbl>, `2021` <dbl>,
## #   `2022` <dbl>, `2023` <dbl>
…
## `summarise()` has grouped output by 'esp_code_alternatif'. You can override
## using the `.groups` argument.

# Filtrer les espèces présentes sur plus de 50% des stations
tableau_final <- tableau_final %>%
  group_by(esp_code_alternatif) %>%
  filter(nombre_op_stations_presence_esp >= 0.15 * nombre_total_stations) %>% 
  mutate(nombre_sta_tot = n_distinct(pop_id))

# Afficher le tableau final filtré
print(tableau_final)

## # A tibble: 276 × 4
## # Groups:   esp_code_alternatif [20]
##    esp_code_alternatif pop_id nombre_op_stations_presence_esp nombre_sta_tot
##    <chr>               <fct>                            <int>          <int>
##  1 ABL                 41764                               25              8
##  2 ABL                 45884                               22              8
##  3 ABL                 46484                               11              8
##  4 ABL                 46671                               12              8
##  5 ABL                 47049                               13              8
##  6 ABL                 47273                                9              8
##  7 ABL                 47430                               30              8
##  8 ABL                 47613                               18              8
##  9 ANG                 41683                                7             34
## 10 ANG                 41764                               34             34
## # ℹ 266 more rows
…
